Project1
…
solar_flare <- url %>%
  read_html() %>%
  html_node("table") %>%
  html_table() %>% 
  set_colnames(c("rank","flare_classification","date","flare_region","start_time","max_time","end_time","movie")) %>%
  as_data_frame

## Warning: `as_data_frame()` is deprecated, use `as_tibble()` (but mind the new semantics).
## This warning is displayed once per session.

solar_flare <- as_tibble(solar_flare)

solar_flare

## # A tibble: 50 x 8
##     rank flare_classific~ date  flare_region start_time max_time end_time
##    <int> <chr>            <chr>        <int> <chr>      <chr>    <chr>   
##  1     1 X28.0            2003~          486 19:29      19:53    20:06   
##  2     2 X20.0            2001~         9393 21:32      21:51    22:03   
##  3     3 X17.2            2003~          486 09:51      11:10    11:24   
##  4     4 X17.0            2005~          808 17:17      17:40    18:03   
##  5     5 X14.4            2001~         9415 13:19      13:50    13:55   
##  6     6 X10.0            2003~          486 20:37      20:49    21:01   
##  7     7 X9.4             1997~         8100 11:49      11:55    12:01   
##  8     8 X9.3             2017~         2673 11:53      12:02    12:10   
##  9     9 X9.0             2006~          930 10:18      10:35    10:45   
## 10    10 X8.3             2003~          486 17:03      17:25    17:39   
## # ... with 40 more rows, and 1 more variable: movie <chr>
…
solar_flare <- solar_flare %>%
  select(-movie) %>%
  unite(start_datetime, date, start_time, sep=" ", remove = FALSE) %>%
  unite(max_datetime, date, max_time, sep=" ", remove = FALSE) %>%
  unite(end_datetime, date, end_time, sep=" ", remove = TRUE) %>%
  select(-start_time) %>%
  select(-max_time) %>%
  type_convert(col_types = cols(start_datetime = col_datetime(format = "%Y/%m/%d %H:%M"))) %>%
  type_convert(col_types = cols(max_datetime = col_datetime(format = "%Y/%m/%d %H:%M"))) %>%
  type_convert(col_types = cols(end_datetime = col_datetime(format = "%Y/%m/%d %H:%M")))

solar_flare

## # A tibble: 50 x 6
##     rank flare_classific~ start_datetime      max_datetime       
##    <int> <chr>            <dttm>              <dttm>             
##  1     1 X28.0            2003-11-04 19:29:00 2003-11-04 19:53:00
##  2     2 X20.0            2001-04-02 21:32:00 2001-04-02 21:51:00
##  3     3 X17.2            2003-10-28 09:51:00 2003-10-28 11:10:00
##  4     4 X17.0            2005-09-07 17:17:00 2005-09-07 17:40:00
##  5     5 X14.4            2001-04-15 13:19:00 2001-04-15 13:50:00
##  6     6 X10.0            2003-10-29 20:37:00 2003-10-29 20:49:00
##  7     7 X9.4             1997-11-06 11:49:00 1997-11-06 11:55:00
##  8     8 X9.3             2017-09-06 11:53:00 2017-09-06 12:02:00
##  9     9 X9.0             2006-12-05 10:18:00 2006-12-05 10:35:00
## 10    10 X8.3             2003-11-02 17:03:00 2003-11-02 17:25:00
## # ... with 40 more rows, and 2 more variables: end_datetime <dttm>,
## #   flare_region <int>
…
nasa <- nasa_url %>% read_html() %>% 
  html_node("pre") %>% 
  html_text(trim =TRUE) %>% 
  str_split("\n") %>% 
  as_vector() %>% 
  str_subset("^\\d{4}") %>% 
  as_data_frame() %>% 
  separate(value, c("start_date","start_time","end_date","end_time","start_frequency","end_frequency","flare_location","flare_region","flare_classification","cme_date","cme_time","cme_angle","cme_width","cme_speed"), sep = "[\\s]+", extra ="drop")

nasa <- as_tibble(nasa)

nasa

## # A tibble: 511 x 14
##    start_date start_time end_date end_time start_frequency end_frequency
##    <chr>      <chr>      <chr>    <chr>    <chr>           <chr>        
##  1 1997/04/01 14:00      04/01    14:15    8000            4000         
##  2 1997/04/07 14:30      04/07    17:30    11000           1000         
##  3 1997/05/12 05:15      05/14    16:00    12000           80           
##  4 1997/05/21 20:20      05/21    22:00    5000            500          
##  5 1997/09/23 21:53      09/23    22:16    6000            2000         
##  6 1997/11/03 05:15      11/03    12:00    14000           250          
##  7 1997/11/03 10:30      11/03    11:30    14000           5000         
##  8 1997/11/04 06:00      11/05    04:30    14000           100          
##  9 1997/11/06 12:20      11/07    08:30    14000           100          
## 10 1997/11/27 13:30      11/27    14:00    14000           7000         
## # ... with 501 more rows, and 8 more variables: flare_location <chr>,
## #   flare_region <chr>, flare_classification <chr>, cme_date <chr>,
## #   cme_time <chr>, cme_angle <chr>, cme_width <chr>, cme_speed <chr>
…
nasa <- nasa %>% 
  mutate(start_frequency = ifelse(start_frequency == "????", NA, start_frequency)) %>% mutate(end_frequency = ifelse(end_frequency == "????", NA, end_frequency)) %>% 
  mutate(flare_location = ifelse(str_detect(flare_location, "-----"), NA, flare_location)) %>% 
  mutate(flare_region = ifelse(str_detect(flare_region, "----"), NA, flare_region)) %>% 
  mutate(flare_classification = ifelse(str_detect(flare_classification, "-"), NA, flare_classification)) %>% 
  mutate(cme_date = ifelse(str_detect(cme_date, "--/--"), NA, cme_date)) %>% 
  mutate(cme_time = ifelse(str_detect(cme_time, "--:--"), NA, cme_time)) %>% 
  mutate(cme_angle = ifelse(str_detect(cme_angle, "-"), NA, cme_angle)) %>% 
  mutate(cme_width = ifelse(str_detect(cme_width, "-"), NA, cme_width)) %>% 
  mutate(cme_speed = ifelse(str_detect(cme_speed, "-"), NA, cme_speed)) %>% mutate(flare_classification = ifelse(str_detect(flare_classification, "^[A-Z][0-9]{2}.$"), paste(flare_classification, "0", sep =""), flare_classification))

nasa

## # A tibble: 511 x 14
##    start_date start_time end_date end_time start_frequency end_frequency
##    <chr>      <chr>      <chr>    <chr>    <chr>           <chr>        
##  1 1997/04/01 14:00      04/01    14:15    8000            4000         
##  2 1997/04/07 14:30      04/07    17:30    11000           1000         
##  3 1997/05/12 05:15      05/14    16:00    12000           80           
##  4 1997/05/21 20:20      05/21    22:00    5000            500          
##  5 1997/09/23 21:53      09/23    22:16    6000            2000         
##  6 1997/11/03 05:15      11/03    12:00    14000           250          
##  7 1997/11/03 10:30      11/03    11:30    14000           5000         
##  8 1997/11/04 06:00      11/05    04:30    14000           100          
##  9 1997/11/06 12:20      11/07    08:30    14000           100          
## 10 1997/11/27 13:30      11/27    14:00    14000           7000         
## # ... with 501 more rows, and 8 more variables: flare_location <chr>,
## #   flare_region <chr>, flare_classification <chr>, cme_date <chr>,
## #   cme_time <chr>, cme_angle <chr>, cme_width <chr>, cme_speed <chr>

Halo column is altered to where if there is a Halo, there will be a Y. Missing Halo information is replaced with NA

nasa <- nasa %>% 
  mutate(halo = ifelse(str_detect(cme_angle, "Halo"), TRUE, FALSE)) %>%
  mutate(cme_angle = ifelse(str_detect(cme_angle, "Halo"), NA, cme_angle))

nasa

## # A tibble: 511 x 15
##    start_date start_time end_date end_time start_frequency end_frequency
##    <chr>      <chr>      <chr>    <chr>    <chr>           <chr>        
##  1 1997/04/01 14:00      04/01    14:15    8000            4000         
##  2 1997/04/07 14:30      04/07    17:30    11000           1000         
##  3 1997/05/12 05:15      05/14    16:00    12000           80           
##  4 1997/05/21 20:20      05/21    22:00    5000            500          
##  5 1997/09/23 21:53      09/23    22:16    6000            2000         
##  6 1997/11/03 05:15      11/03    12:00    14000           250          
##  7 1997/11/03 10:30      11/03    11:30    14000           5000         
##  8 1997/11/04 06:00      11/05    04:30    14000           100          
##  9 1997/11/06 12:20      11/07    08:30    14000           100          
## 10 1997/11/27 13:30      11/27    14:00    14000           7000         
## # ... with 501 more rows, and 9 more variables: flare_location <chr>,
## #   flare_region <chr>, flare_classification <chr>, cme_date <chr>,
## #   cme_time <chr>, cme_angle <chr>, cme_width <chr>, cme_speed <chr>,
## #   halo <lgl>

Lower bound column in created and width column is altered to not include the > symbol

nasa <- nasa %>% 
  mutate(cme_width_limit = ifelse(str_detect(cme_width, ">"), TRUE, FALSE)) %>%
  mutate(cme_width = ifelse(str_detect(cme_width, ">"), gsub(">","",cme_width), cme_width))

nasa

## # A tibble: 511 x 16
##    start_date start_time end_date end_time start_frequency end_frequency
##    <chr>      <chr>      <chr>    <chr>    <chr>           <chr>        
##  1 1997/04/01 14:00      04/01    14:15    8000            4000         
##  2 1997/04/07 14:30      04/07    17:30    11000           1000         
##  3 1997/05/12 05:15      05/14    16:00    12000           80           
##  4 1997/05/21 20:20      05/21    22:00    5000            500          
##  5 1997/09/23 21:53      09/23    22:16    6000            2000         
##  6 1997/11/03 05:15      11/03    12:00    14000           250          
##  7 1997/11/03 10:30      11/03    11:30    14000           5000         
##  8 1997/11/04 06:00      11/05    04:30    14000           100          
##  9 1997/11/06 12:20      11/07    08:30    14000           100          
## 10 1997/11/27 13:30      11/27    14:00    14000           7000         
## # ... with 501 more rows, and 10 more variables: flare_location <chr>,
## #   flare_region <chr>, flare_classification <chr>, cme_date <chr>,
## #   cme_time <chr>, cme_angle <chr>, cme_width <chr>, cme_speed <chr>,
## #   halo <lgl>, cme_width_limit <lgl>

To prevent any potential issues, all 24:00 times were set back a minute and years were added to the end and cme date

nasa <- nasa %>% mutate(start_time = ifelse(str_detect(start_time, "24:00"), gsub("24:00","23:59",start_time), start_time)) %>% 
  mutate(end_time = ifelse(str_detect(end_time, "24:00"), gsub("24:00","23:59",end_time), end_time)) %>% 
  mutate(cme_time = ifelse(str_detect(cme_time, "24:00"), gsub("24:00","23:59",cme_time), cme_time)) %>% 
  mutate(end_date = paste(substr(start_date,1,4), end_date, sep="/")) %>% 
  mutate(cme_date = paste(substr(start_date,1,4), cme_date, sep="/"))

nasa

## # A tibble: 511 x 16
##    start_date start_time end_date end_time start_frequency end_frequency
##    <chr>      <chr>      <chr>    <chr>    <chr>           <chr>        
##  1 1997/04/01 14:00      1997/04~ 14:15    8000            4000         
##  2 1997/04/07 14:30      1997/04~ 17:30    11000           1000         
##  3 1997/05/12 05:15      1997/05~ 16:00    12000           80           
##  4 1997/05/21 20:20      1997/05~ 22:00    5000            500          
##  5 1997/09/23 21:53      1997/09~ 22:16    6000            2000         
##  6 1997/11/03 05:15      1997/11~ 12:00    14000           250          
##  7 1997/11/03 10:30      1997/11~ 11:30    14000           5000         
##  8 1997/11/04 06:00      1997/11~ 04:30    14000           100          
##  9 1997/11/06 12:20      1997/11~ 08:30    14000           100          
## 10 1997/11/27 13:30      1997/11~ 14:00    14000           7000         
## # ... with 501 more rows, and 10 more variables: flare_location <chr>,
## #   flare_region <chr>, flare_classification <chr>, cme_date <chr>,
## #   cme_time <chr>, cme_angle <chr>, cme_width <chr>, cme_speed <chr>,
## #   halo <lgl>, cme_width_limit <lgl>

Date time columns are created

nasa <- nasa %>% 
  unite(start_datetime, start_date, start_time, sep=" ", remove = TRUE) %>%
  unite(end_datetime, end_date, end_time, sep=" ", remove = TRUE) %>%
  unite(cme_datetime, cme_date, cme_time, sep=" ", remove = TRUE) %>% 
  mutate(cme_datetime = ifelse(str_detect(cme_datetime, "NA"), NA, cme_datetime))

nasa

## # A tibble: 511 x 13
##    start_datetime end_datetime start_frequency end_frequency flare_location
##    <chr>          <chr>        <chr>           <chr>         <chr>         
##  1 1997/04/01 14~ 1997/04/01 ~ 8000            4000          S25E16        
##  2 1997/04/07 14~ 1997/04/07 ~ 11000           1000          S28E19        
##  3 1997/05/12 05~ 1997/05/14 ~ 12000           80            N21W08        
##  4 1997/05/21 20~ 1997/05/21 ~ 5000            500           N05W12        
##  5 1997/09/23 21~ 1997/09/23 ~ 6000            2000          S29E25        
##  6 1997/11/03 05~ 1997/11/03 ~ 14000           250           S20W13        
##  7 1997/11/03 10~ 1997/11/03 ~ 14000           5000          S16W21        
##  8 1997/11/04 06~ 1997/11/05 ~ 14000           100           S14W33        
##  9 1997/11/06 12~ 1997/11/07 ~ 14000           100           S18W63        
## 10 1997/11/27 13~ 1997/11/27 ~ 14000           7000          N17E63        
## # ... with 501 more rows, and 8 more variables: flare_region <chr>,
## #   flare_classification <chr>, cme_datetime <chr>, cme_angle <chr>,
## #   cme_width <chr>, cme_speed <chr>, halo <lgl>, cme_width_limit <lgl>

Datetime columns converted to datetime objects and other columns converted to proper column types

nasa <- nasa[c(1,2,8,3:7,9:13)] %>% 
  type_convert(col_types = cols(start_datetime = col_datetime(format = "%Y/%m/%d %H:%M"))) %>% 
  type_convert(col_types = cols(end_datetime = col_datetime(format = "%Y/%m/%d %H:%M"))) %>% 
  type_convert(col_types = cols(cme_datetime = col_datetime(format = "%Y/%m/%d %H:%M"))) %>% type_convert(col_types = cols(start_frequency = col_integer())) %>% type_convert(col_types = cols(cme_angle = col_integer())) %>% type_convert(col_types = cols(cme_speed = col_integer())) %>% type_convert(col_types = cols(cme_width = col_integer())) %>% type_convert(col_types = cols(end_frequency = col_integer()))

nasa

## # A tibble: 511 x 13
##    start_datetime      end_datetime        cme_datetime       
##    <dttm>              <dttm>              <dttm>             
##  1 1997-04-01 14:00:00 1997-04-01 14:15:00 1997-04-01 15:18:00
##  2 1997-04-07 14:30:00 1997-04-07 17:30:00 1997-04-07 14:27:00
##  3 1997-05-12 05:15:00 1997-05-14 16:00:00 1997-05-12 05:30:00
##  4 1997-05-21 20:20:00 1997-05-21 22:00:00 1997-05-21 21:00:00
##  5 1997-09-23 21:53:00 1997-09-23 22:16:00 1997-09-23 22:02:00
##  6 1997-11-03 05:15:00 1997-11-03 12:00:00 1997-11-03 05:28:00
##  7 1997-11-03 10:30:00 1997-11-03 11:30:00 1997-11-03 11:11:00
##  8 1997-11-04 06:00:00 1997-11-05 04:30:00 1997-11-04 06:10:00
##  9 1997-11-06 12:20:00 1997-11-07 08:30:00 1997-11-06 12:10:00
## 10 1997-11-27 13:30:00 1997-11-27 14:00:00 1997-11-27 13:56:00
## # ... with 501 more rows, and 10 more variables: start_frequency <dbl>,
## #   end_frequency <dbl>, flare_location <chr>, flare_region <chr>,
## #   flare_classification <chr>, cme_angle <dbl>, cme_width <int>,
## #   cme_speed <dbl>, halo <lgl>, cme_width_limit <lgl>
…
options(digits = 9)

nasa_top50 <- nasa %>% separate(flare_classification, c("flare_letter", "flare_num"), sep=1) 

#Due to the nature of the project and the way I attempted to classify and sort, as.numeric was giving a warning due to the NA's that were added prior. In order to prevent this, I supporessed the warnings around the numeric conversion. This does not cause any problems with the code due to NA's being ignored during classification anyways
nasa_top50 <- nasa_top50 %>% mutate(flare_region = ifelse (str_detect(flare_region, "^[0-9]{5}$"), substring(flare_region,2), flare_region)) %>% mutate(flare_num = suppressWarnings(as.numeric(flare_num))) %>% mutate(flare_region = ifelse (str_detect(flare_region, "^[0]"), substring(flare_region,2), flare_region))

#More cleanup plus combination of flare_classification
nasa_top50 <- nasa_top50[with(nasa_top50, order(flare_letter, flare_num, decreasing = TRUE)),] %>% unite(flare_classification, c("flare_letter", "flare_num"), sep = "", remove = TRUE) %>% slice(1:50)  %>% mutate(flare_classification = ifelse(str_detect(flare_classification, "^[A-Z][0-9]{1,2}$"), paste(flare_classification, ".0", sep=""), flare_classification))

nasa_top50 <- as_tibble(nasa_top50)

nasa_top50

## # A tibble: 50 x 13
##    start_datetime      end_datetime        cme_datetime       
##    <dttm>              <dttm>              <dttm>             
##  1 2003-11-04 20:00:00 2003-11-04 23:59:00 2003-11-04 19:54:00
##  2 2001-04-02 22:05:00 2001-04-03 02:30:00 2001-04-02 22:06:00
##  3 2003-10-28 11:10:00 2003-10-29 23:59:00 2003-10-28 11:30:00
##  4 2001-04-15 14:05:00 2001-04-16 13:00:00 2001-04-15 14:06:00
##  5 2003-10-29 20:55:00 2003-10-29 23:59:00 2003-10-29 20:54:00
##  6 1997-11-06 12:20:00 1997-11-07 08:30:00 1997-11-06 12:10:00
##  7 2006-12-05 10:50:00 2006-12-05 20:00:00 NA                 
##  8 2003-11-02 17:30:00 2003-11-03 01:00:00 2003-11-02 17:30:00
##  9 2005-01-20 07:15:00 2005-01-20 16:30:00 2005-01-20 06:54:00
## 10 2011-08-09 08:20:00 2011-08-09 08:35:00 2011-08-09 08:12:00
## # ... with 40 more rows, and 10 more variables: start_frequency <dbl>,
## #   end_frequency <dbl>, flare_location <chr>, flare_region <chr>,
## #   flare_classification <chr>, cme_angle <dbl>, cme_width <int>,
## #   cme_speed <dbl>, halo <lgl>, cme_width_limit <lgl>
…
